<?xml version="1.0" encoding="UTF-8"?>
<svg width="32px" height="32px" viewBox="0 0 32 32" version="1.1" xmlns="http://www.w3.org/2000/svg" xmlns:xlink="http://www.w3.org/1999/xlink">
    <!-- Generator: Sketch 61.2 (89653) - https://sketch.com -->
    <title>social-icons/basic/youtube copy</title>
    <desc>Created with Sketch.</desc>
    <g id="social-icons/basic/youtube-copy" stroke="none" stroke-width="1" fill="none" fill-rule="evenodd">
        <path d="M26.1548311,14.9081493 C29.3824291,14.9081493 32,17.5276775 32,20.7552756 L32,20.7552756 L32,25.453463 C32,28.681061 29.3824291,31.2999368 26.1548311,31.2999368 L26.1548311,31.2999368 L5.84516892,31.2999368 C2.61691847,31.2999368 5.32907052e-15,28.681061 5.32907052e-15,25.453463 L5.32907052e-15,25.453463 L5.32907052e-15,20.7552756 C5.32907052e-15,17.5276775 2.61691847,14.9081493 5.84516892,14.9081493 L5.84516892,14.9081493 Z M24.6281322,19.6487451 C23.9032764,19.6487451 23.3141273,19.8692683 22.85677,20.310967 C22.3981079,20.7526658 22.1671458,21.3287663 22.1671458,22.0288295 L22.1671458,22.0288295 L22.1671458,25.6668094 C22.1671458,26.4471221 22.3785349,27.0610639 22.7928314,27.5034151 C23.2084327,27.948376 23.7806186,28.1695517 24.5067792,28.1695517 C25.3131894,28.1695517 25.9199543,27.9620772 26.322507,27.5438661 C26.731584,27.1217404 26.9331865,26.4960548 26.9331865,25.666157 L26.9331865,25.666157 L26.9331865,25.2505556 L25.2675189,25.2505556 L25.2675189,25.6191816 C25.2675189,26.0954595 25.2114095,26.4021041 25.1070198,26.5430302 C24.9987155,26.6826513 24.8127714,26.7524619 24.543968,26.7524619 C24.2849512,26.7524619 24.1029217,26.6715599 23.9946174,26.5058413 C23.8889229,26.3407752 23.836728,26.0445695 23.836728,25.6191816 L23.836728,25.6191816 L23.836728,24.0931352 L26.9331865,24.0931352 L26.9331865,22.0281771 C26.9331865,21.2602606 26.7341937,20.6730687 26.3368606,20.2626868 C25.9395274,19.8529574 25.3699513,19.6487451 24.6281322,19.6487451 Z M15.4457561,19.8477379 L13.8277163,19.8477379 L13.8277163,25.9995515 C13.6756988,26.1770139 13.5086754,26.3205497 13.325341,26.4353783 C13.1433115,26.5489021 12.9919465,26.6050115 12.8745081,26.6050115 C12.7224907,26.6050115 12.6115767,26.5645605 12.5417661,26.4764817 C12.477175,26.3910127 12.441291,26.2533488 12.441291,26.0615328 L12.441291,26.0615328 L12.441291,19.8483903 L10.8232512,19.8483903 L10.8232512,26.6187127 C10.8232512,27.1034722 10.9191592,27.4623117 11.1070606,27.7043652 C11.2982242,27.9470712 11.5774665,28.0664669 11.9532693,28.0664669 C12.2573042,28.0664669 12.5698208,27.98426 12.8934288,27.8081024 C13.2170367,27.6391217 13.5269435,27.3885865 13.8277163,27.0604114 L13.8277163,27.0604114 L13.8277163,27.9477236 L15.4457561,27.9477236 L15.4457561,19.8477379 Z M18.2995086,16.9698453 L16.6618957,16.9698453 L16.6618957,27.9470712 L18.2995086,27.9470712 L18.2995086,27.3266051 C18.5115501,27.5771403 18.7444696,27.7578649 18.9917426,27.8753033 C19.2377108,27.9940465 19.5208677,28.0514608 19.8392562,28.0514608 C20.3174914,28.0514608 20.6867698,27.9007483 20.9392623,27.5941036 C21.1930597,27.287459 21.3202846,26.8477175 21.3202846,26.2755316 L21.3202846,26.2755316 L21.3189798,26.2755316 L21.3189798,21.780904 C21.3189798,21.1180296 21.1839256,20.6123922 20.9125125,20.2672539 C20.6424042,19.9221155 20.2522478,19.7511774 19.740086,19.7511774 C19.488246,19.7511774 19.2396681,19.8138112 18.992395,19.9436459 C18.7503415,20.0708708 18.5187269,20.2607295 18.2995086,20.5053928 L18.2995086,20.5053928 L18.2995086,16.9698453 Z M10.1120966,16.9698453 L4.51289579,16.9698453 L4.51289579,18.5657023 L6.39973903,18.5657023 L6.39973903,27.9477236 L8.22394846,27.9477236 L8.22394846,18.5657023 L10.1120966,18.5657023 L10.1120966,16.9698453 Z M18.9767366,21.0371277 C19.19465,21.0371277 19.3629784,21.1075907 19.4817216,21.2472119 C19.5965502,21.3887903 19.6513548,21.5949599 19.6513548,21.8702877 L19.6513548,21.8702877 L19.6513548,26.0530512 C19.6513548,26.312068 19.6043795,26.4954024 19.5123861,26.610231 C19.4190878,26.7263645 19.2742472,26.7837788 19.0752543,26.7837788 C18.9375905,26.7837788 18.8084083,26.7524619 18.6837931,26.6970049 C18.5585255,26.6395906 18.4299957,26.5391155 18.3001611,26.4086285 L18.3001611,26.4086285 L18.3001611,21.3633454 C18.4097702,21.2524313 18.5206842,21.1669623 18.634208,21.1154199 C18.7457745,21.0625726 18.861908,21.0371277 18.9767366,21.0371277 Z M24.5596265,21.0645299 C24.8055946,21.0645299 24.9876241,21.1376027 25.0965808,21.2883153 C25.2101046,21.4298938 25.2675189,21.6739046 25.2675189,22.0138235 L25.2675189,22.0138235 L25.2675189,22.8326299 L23.836728,22.8326299 L23.836728,22.0138235 C23.836728,21.6739046 23.8902277,21.4305462 24.0050564,21.2883153 C24.1172753,21.1369503 24.3012621,21.0645299 24.5596265,21.0645299 Z M15.8059005,2.94770322 C16.5601158,2.94770322 17.1786246,3.16431178 17.6614268,3.59426672 C18.1409668,4.02552654 18.3817155,4.58466369 18.3817155,5.26384896 L18.3817155,5.26384896 L18.3817155,9.87265276 C18.3817155,10.6360022 18.1461863,11.2316757 17.6757804,11.668155 C17.2021123,12.102677 16.5522866,12.319938 15.7236936,12.319938 C14.92707,12.319938 14.2876832,12.0948478 13.8094481,11.6466247 C13.3312129,11.1964442 13.0917691,10.5962036 13.0917691,9.83742125 L13.0917691,9.83742125 L13.0917691,5.212959 C13.0917691,4.51942015 13.3377373,3.97072196 13.8270638,3.56164495 C14.3176953,3.15256795 14.9773075,2.94770322 15.8059005,2.94770322 Z M21.6810814,3.17344588 L21.6810814,10.0135788 C21.6810814,10.2230106 21.7234897,10.3756805 21.7985198,10.4689787 C21.872245,10.5661916 21.998165,10.613167 22.1691031,10.613167 C22.3028524,10.613167 22.4724856,10.5505332 22.6786552,10.4252656 C22.8809101,10.2986931 23.069464,10.1394988 23.2390972,9.94572553 L23.2390972,9.94572553 L23.2390972,3.17344588 L25.0613493,3.17344588 L25.0613493,12.0955002 L23.2390972,12.0955002 L23.2390972,11.1070606 C22.9057027,11.4704671 22.5553449,11.749057 22.1893286,11.9395682 C21.8272269,12.1274696 21.4755643,12.2253349 21.1330357,12.2253349 C20.7096051,12.2253349 20.3951312,12.0902808 20.1798275,11.8227822 C19.9684384,11.5591983 19.861439,11.1618651 19.861439,10.6301303 L19.861439,10.6301303 L19.861439,3.17344588 L21.6810814,3.17344588 Z M8.12738802,7.81597009e-14 L9.46031358,4.83454646 L9.58949579,4.83454646 L10.8591351,7.81597009e-14 L12.9443187,7.81597009e-14 L10.5557526,7.07761943 L10.5557526,12.0948478 L8.50449569,12.0948478 L8.50449569,7.30336208 L6.06112504,7.81597009e-14 L8.12738802,7.81597009e-14 Z M15.7184741,4.49397517 C15.4953412,4.49397517 15.3159215,4.55204192 15.174343,4.67209004 C15.037984,4.79474789 14.9681734,4.9513324 14.9681734,5.14510571 L14.9681734,5.14510571 L14.9675209,5.14510571 L14.9675209,10.0057496 C14.9675209,10.2504129 15.0327645,10.4383143 15.1612943,10.5720635 C15.2917814,10.709075 15.4777254,10.7743185 15.7184741,10.7743185 C15.9644423,10.7743185 16.1601729,10.7071177 16.305666,10.5701062 C16.452464,10.4337472 16.5248843,10.244541 16.5248843,10.006402 L16.5248843,10.006402 L16.5248843,5.14510571 C16.5248843,4.9513324 16.4511591,4.79474789 16.3030563,4.67209004 C16.154301,4.55204192 15.9592228,4.49397517 15.7184741,4.49397517 Z" id="Combined-Shape" fill="#ffffff"></path>
    </g>
</svg>